{
  "type": "service_account",
  "project_id": "api-8938516673226166179-971620",
  "private_key_id": "2356abe3aebddbf0aab7268c8374810cc320799b",
  "private_key": "-----BEGIN PRIVATE KEY-----\nMIIEvgIBADANBgkqhkiG9w0BAQEFAASCBKgwggSkAgEAAoIBAQC8k5iT27ec61c7\ndQraO76NuMT8+p9pQSZ7AzOj/993F+2YYujKxBie/qe8fLaOspK+1if/s4LaDoA+\nVIqqMdeljKQTrfLOP3buaYQyRi9+gGhxMmC2c8MAIuDjc9yAGfV3FMRnPH7Ecwh5\n/L0r9Ib9Se+7w/rz8gwm4T8yoS0D1YZbDymt6yHnn7mbgOwOzwDhKG0QoGFEGgFn\noU1KuEJsIOu2R6YwJ9Jit1I/Q4KRqNYRKvlaczbHcjzuWq0pNW7HP85zVm6bTmr8\nCw0FpGplIehV7a5rFtwzj4kNm1yet9BmzD1kBqxu6jg7MoC6MF7Qmi6sDqdHdIsn\nBpHHWUaxAgMBAAECggEASWMFJ1GD8MjzfzuK2CgU/bFQ1ASywfLtR0UVNTcQH5hL\nyhh/8N0EmeePnn5IS1s6WZMdKNkSzMqE5Pzgo+BWxGHpvpDc45/2KE0e+bOvqwLM\n4nSRB6AgXK62Jz5BKwcvLEMENgroaIo9279cXT1BxVOfPMrFoGbrjLvu7MSlsI4e\nv6vS9sB7kAZvwKjOWwIX8ngsiKhNA2y0Dh7j0g61u4AmyFzeviAqFhET4v+f4aE0\ngACIcT6Agz5RsBZ7PNslCrDPMVwHbP6MGNJIjdq8PO3hsmUbiHllpRVIkysuZzS0\nTdKC9CZnIVufc9Sq58a4LOXg3KEU98kAmCn+VApuewKBgQDeKFVVN4li7xgdEUdB\nuzNk4adu/pbEYItTc9JDIvSNyj3L4gQFSwcfJVSTW+3H9e9XnasGABMJJy0QQIVs\n+6mtz9uOJybK+laN9OA4lIEuAUb50ins6DwuKD+ap0WMHWw5bfFniE3edjYarQa1\nGGBRTA0HvkDftX1tnApV9Rq5KwKBgQDZTaz7C6yd/NnSBLtPDteCHapJVoJ3jB52\nCRlFrYsQ//WUkctwZ3hLeGoO83CZsq8zAfX/G+7tnWQivi6rx+xI72xh9iSUf0H6\nnVvZVXTcBh/VHLebNmPBSUJQWcLACOUh5mxD4IlKHfR7guXXlQyA+Ojv1pzlcBv6\np/Zm6WNZkwKBgQCezVgKPVPA28Zx6Mr16poXT9J+3g/pulV9xvoTMaZ8wIeh+SME\noZgqpGWrnHgBiwSWrcb12BHDZjSpPGXj/JVTAJUiLUxmpcI/YT7yUv1wZEtXAusj\nRPLXz79/jniBavrUpol8h4uaLQgJ04tK4mzfUCy0T0RSZYqOUo902GtM1wKBgQC5\n7uiv9hFBLXUDauEKiFyGDPQDxG3l9JKr1KU3JYL0jM6IzScRirc3fFTjbhFOscGP\nF4JxQmlyD1X7FFfCzFG1JofKWl56YVkHI1XP5HsVOHhMVUIVILjCTfjb37Hvtqy4\nEP1aJunR7Uef1yTrDbGhOVm2vh+Jgh+uncEL1W8Y2QKBgEnV6T+gFi6zND5cLV7k\nQEcfGZekUUdJEv6pWokdE7mJ/u2NncUy0JhA098mpzjNa0RrX1VQZiScOCGWwLss\nyUhfHFl0xWDIfkSIcBxp+Qputq6n9ni8ciqV0FQucd30fCU22CxswFz53eHJDBmk\ntB254utkqrI4k9ubHiFYjDwc\n-----END PRIVATE KEY-----\n",
  "client_email": "rick-and-mort-de-rire@api-8938516673226166179-971620.iam.gserviceaccount.com",
  "client_id": "107300689014457751868",
  "auth_uri": "https://accounts.google.com/o/oauth2/auth",
  "token_uri": "https://accounts.google.com/o/oauth2/token",
  "auth_provider_x509_cert_url": "https://www.googleapis.com/oauth2/v1/certs",
  "client_x509_cert_url": "https://www.googleapis.com/robot/v1/metadata/x509/rick-and-mort-de-rire%40api-8938516673226166179-971620.iam.gserviceaccount.com"
}
