{
  "project_info": {
    "project_number": "911678477565",
    "firebase_url": "https://wonderfulapp-46fd7.firebaseio.com",
    "project_id": "wonderfulapp-46fd7",
    "storage_bucket": "wonderfulapp-46fd7.appspot.com"
  },
  "client": [
    {
      "client_info": {
        "mobilesdk_app_id": "1:911678477565:android:aa7d16be8d3965af",
        "android_client_info": {
          "package_name": "com.team.dream.wonderfulapp"
        }
      },
      "oauth_client": [
        {
          "client_id": "911678477565-863ue2mdg4tcv6p2kot6gofuffonpta9.apps.googleusercontent.com",
          "client_type": 3
        }
      ],
      "api_key": [
        {
          "current_key": "AIzaSyBR-AQasSq3WsIVw9rRmeKd2Fn31kMfA6I"
        }
      ],
      "services": {
        "analytics_service": {
          "status": 1
        },
        "appinvite_service": {
          "status": 1,
          "other_platform_oauth_client": []
        },
        "ads_service": {
          "status": 2
        }
      }
    }
  ],
  "configuration_version": "1"
}